{
  "project_info": {
    "project_number": "975971853842",
    "firebase_url": "https://krabaapp.firebaseio.com",
    "project_id": "krabaapp",
    "storage_bucket": "krabaapp.appspot.com"
  },
  "client": [
    {
      "client_info": {
        "mobilesdk_app_id": "1:975971853842:android:1d9c3375a1247e99",
        "android_client_info": {
          "package_name": "de.erfurt.kraba.krabaerfurt"
        }
      },
      "oauth_client": [
        {
          "client_id": "975971853842-kpe4f1grilf8hi3h2en2sg58bhmc6v7t.apps.googleusercontent.com",
          "client_type": 3
        }
      ],
      "api_key": [
        {
          "current_key": "AIzaSyB8XYgP7QUSfc1U9RW5smjZR303ie5A6s0"
        }
      ],
      "services": {
        "analytics_service": {
          "status": 1
        },
        "appinvite_service": {
          "status": 1,
          "other_platform_oauth_client": []
        },
        "ads_service": {
          "status": 2
        }
      }
    }
  ],
  "configuration_version": "1"
}